Introduction to Text Mining
…
## [1] 1287

One of the stop words lists provided by stopwordspackage is the snowball list, configured via setting the source argument. Using that list we can easily remove the stop words via dplyr’s filter operation.

As you can see, we ended up with 577 words without the stop words.

nosw_tale_word_list = tale_word_list %>%
  filter(!(tale_word_list$word %in% stopwords(source = "snowball")))
nrow(nosw_tale_word_list)

## [1] 577

nosw_tale_word_list

## # A tibble: 577 x 3
##    book                language word    
##    <chr>               <chr>    <chr>   
##  1 What one can invent English  young   
##  2 What one can invent English  man     
##  3 What one can invent English  studying
##  4 What one can invent English  poet    
##  5 What one can invent English  wanted  
##  6 What one can invent English  become  
##  7 What one can invent English  one     
##  8 What one can invent English  easter  
##  9 What one can invent English  marry   
## 10 What one can invent English  live    
## # … with 567 more rows

Stemming

The idea of stemming is to acquire the base word (stem) instead of dealing with different versions of the same word. Using a package called SnowballC that implements one of the widely used stemming algorithms, you can easily do stemming.

In the below code, we apply stemming thanks the wordStem function that comes from the SnowballC package.

stem_counts = nosw_tale_word_list %>%
  mutate(stem = wordStem(word)) %>%
  count(stem, sort = TRUE)
stem_counts

## # A tibble: 316 x 2
##    stem       n
##    <chr>  <int>
##  1 said      14
##  2 on        11
##  3 potato    11
##  4 now       10
##  5 woman     10
##  6 can        9
##  7 man        9
##  8 time       8
##  9 wise       8
## 10 invent     7
## # … with 306 more rows
…
In the below code, based on the AssociatedPress data, we run the LDA algorithm considering 3 topics. One of the crucial things to consider when applying LDA is to decide on the number of topics. For the sake of example, we set it to 3.

set.seed(1234)
data(AssociatedPress)
ap_lda = LDA(AssociatedPress, k = 3)
ap_lda

## A LDA_VEM topic model with 3 topics.

Below code block presents the per-topics probabilities (beta-β) of each word along with the associated topic number.

ap_topics = tidy(ap_lda, matrix = "beta")
ap_topics

## # A tibble: 31,419 x 3
##    topic term           beta
##    <int> <chr>         <dbl>
##  1     1 aaron      2.05e- 6
##  2     2 aaron      4.53e-12
##  3     3 aaron      5.55e- 5
##  4     1 abandon    3.95e- 5
##  5     2 abandon    4.94e- 5
##  6     3 abandon    2.02e- 5
##  7     1 abandoned  9.42e- 5
##  8     2 abandoned  1.47e- 5
##  9     3 abandoned  1.41e- 4
## 10     1 abandoning 8.77e- 6
## # … with 31,409 more rows
…
